<?xml version="1.0" encoding="UTF-8"?>
<svg xmlns="http://www.w3.org/2000/svg" xmlns:xlink="http://www.w3.org/1999/xlink" width="384pt" height="384pt" viewBox="0 0 384 384" version="1.1">
<g id="surface1">
<path style=" stroke:none;fill-rule:nonzero;fill:rgb(0%,0%,0%);fill-opacity:1;" d="M 112 162 L 112 222 C 112 231.941406 103.941406 240 94 240 L 18 240 C 8.058594 240 0 231.941406 0 222 L 0 162 C 0 152.058594 8.058594 144 18 144 L 94 144 C 103.941406 144 112 152.058594 112 162 Z M 0 282 L 0 342 C 0 351.941406 8.058594 360 18 360 L 94 360 C 103.941406 360 112 351.941406 112 342 L 112 282 C 112 272.058594 103.941406 264 94 264 L 18 264 C 8.058594 264 0 272.058594 0 282 Z M 94 24 L 18 24 C 8.058594 24 0 32.058594 0 42 L 0 102 C 0 111.941406 8.058594 120 18 120 L 94 120 C 103.941406 120 112 111.941406 112 102 L 112 42 C 112 32.058594 103.941406 24 94 24 Z M 154 360 L 366 360 C 375.941406 360 384 351.941406 384 342 L 384 282 C 384 272.058594 375.941406 264 366 264 L 154 264 C 144.058594 264 136 272.058594 136 282 L 136 342 C 136 351.941406 144.058594 360 154 360 Z M 136 42 L 136 102 C 136 111.941406 144.058594 120 154 120 L 366 120 C 375.941406 120 384 111.941406 384 102 L 384 42 C 384 32.058594 375.941406 24 366 24 L 154 24 C 144.058594 24 136 32.058594 136 42 Z M 154 240 L 366 240 C 375.941406 240 384 231.941406 384 222 L 384 162 C 384 152.058594 375.941406 144 366 144 L 154 144 C 144.058594 144 136 152.058594 136 162 L 136 222 C 136 231.941406 144.058594 240 154 240 Z M 154 240 "/>
</g>
</svg>
